%YAML 1.1
%TAG !u! tag:unity3d.com,2011:
--- !u!114 &11400000
MonoBehaviour:
  m_ObjectHideFlags: 0
  m_CorrespondingSourceObject: {fileID: 0}
  m_PrefabInstance: {fileID: 0}
  m_PrefabAsset: {fileID: 0}
  m_GameObject: {fileID: 0}
  m_Enabled: 1
  m_EditorHideFlags: 0
  m_Script: {fileID: 11500000, guid: 69fc5147e0a10e8499c911bd156a9aa7, type: 3}
  m_Name: 3
  m_EditorClassIdentifier: 
  dialogueName: 
  text: 
  charactersPerPage: 444
  pages:
  - text: "En medio del denso bosque, Gruk se topa con un orco misterioso, Korg,
      que parece haber pertenecido al clan. Korg est\xE1 parado entre las sombras,
      su mirada llena de sabidur\xEDa y curiosidad."
    characterSprite: {fileID: 0}
    hasOption: 0
    options: []
    methodToExecuteOnClose: 
  - text: "Korg: \"He visto tu valent\xEDa en la batalla y tu devoci\xF3n por tu
      lobo, orco solitario. Te propongo ayudarte en tu traves\xEDa. Sin embargo,
      como podr\xE1 notar mi f\xEDsico ya es el de un anciano, as\xED que te brindar\xE9
      mi ayuda a trav\xE9s de una habilidad m\xE1gica que vaya alineada a tus motivaciones\""
    characterSprite: {fileID: 21300000, guid: 037e58f08def96e479a60af47f07e110, type: 3}
    hasOption: 0
    options: []
    methodToExecuteOnClose: 
  - text: Gruk, desconfiado pero ansioso por salvar a su amigo y su hogar, se toma
      unos momentos para pensar como actuar.
    characterSprite: {fileID: 0}
    hasOption: 0
    options: []
    methodToExecuteOnClose: 
  - text: 
    characterSprite: {fileID: 0}
    hasOption: 1
    options:
    - buttonText: "\xBFQui\xE9n eres t\xFA?"
      nextDialogue: {fileID: 11400000, guid: f8cb0e72e6fdb6d4381cb24413d36030, type: 2}
      sceneButton: {fileID: 0}
      methodName: 
      shouldCloseDialogue: 0
    - buttonText: Confiar en Korg
      nextDialogue: {fileID: 11400000, guid: 41857c4cfa0e1b149839d5541d31912d, type: 2}
      sceneButton: {fileID: 0}
      methodName: 
      shouldCloseDialogue: 0
    - buttonText: Continuar avanzando solo
      nextDialogue: {fileID: 11400000, guid: 8c733f1ef714ce343a2a71e3da523fd2, type: 2}
      sceneButton: {fileID: 0}
      methodName: 
      shouldCloseDialogue: 0
    methodToExecuteOnClose: 
