%YAML 1.1
%TAG !u! tag:unity3d.com,2011:
--- !u!114 &11400000
MonoBehaviour:
  m_ObjectHideFlags: 0
  m_CorrespondingSourceObject: {fileID: 0}
  m_PrefabInstance: {fileID: 0}
  m_PrefabAsset: {fileID: 0}
  m_GameObject: {fileID: 0}
  m_Enabled: 1
  m_EditorHideFlags: 0
  m_Script: {fileID: 11500000, guid: 69fc5147e0a10e8499c911bd156a9aa7, type: 3}
  m_Name: FinalRutaCastilloC
  m_EditorClassIdentifier: 
  dialogueName: 
  text: 
  charactersPerPage: 444
  pages:
  - text: "Gruk regresa solo a su hogar destrozado emocionalmente y fisicamente.
      Gruk comprende que ya no puede combatir m\xE1s y no podria salvar a su compa\xF1ero,
      \xE9l se sienta y contempla un dibujo tallado por \xE9l junto a Volk, hasta
      cerrar sus ojos para descansar."
    characterSprite: {fileID: 21300000, guid: dd067d3ba201e064f8fcd4a4d8b7c8c9, type: 3}
    hasOption: 1
    options:
    - buttonText: Fin
      nextDialogue: {fileID: 0}
      sceneButton: {fileID: 2759648796031743025, guid: 4484720145fec884698f8a981b329068, type: 3}
      methodName: 
      shouldCloseDialogue: 0
    methodToExecuteOnClose: 
