%YAML 1.1
%TAG !u! tag:unity3d.com,2011:
--- !u!114 &11400000
MonoBehaviour:
  m_ObjectHideFlags: 0
  m_CorrespondingSourceObject: {fileID: 0}
  m_PrefabInstance: {fileID: 0}
  m_PrefabAsset: {fileID: 0}
  m_GameObject: {fileID: 0}
  m_Enabled: 1
  m_EditorHideFlags: 0
  m_Script: {fileID: 11500000, guid: 69fc5147e0a10e8499c911bd156a9aa7, type: 3}
  m_Name: FINALRutaCuevaC
  m_EditorClassIdentifier: 
  dialogueName: 
  text: 
  charactersPerPage: 444
  pages:
  - text: "En el apogeo de la batalla, Gruk finalmente supera a Grimmlock y lo derrota
      con un golpe final. El comandante del \"Clan Colmillo'' cae, derrotado y herido.\n\nVolk,
      quien ha estado observando la confrontaci\xF3n, sonr\xEDe d\xE9bilmente. Con
      la derrota de Grimmlock, Gruk libera a Volk y ambos se retiran de lugar, de
      regreso a su hogar en aquella rec\xF3ndita zona del \"Bosque Esmeralda''.\n\n"
    characterSprite: {fileID: 21300000, guid: 73dc06dc18a297f4e85b34c76d652e4e, type: 3}
    hasOption: 1
    options:
    - buttonText: Fin
      nextDialogue: {fileID: 0}
      sceneButton: {fileID: 2759648796031743025, guid: 4484720145fec884698f8a981b329068, type: 3}
