%YAML 1.1
%TAG !u! tag:unity3d.com,2011:
--- !u!114 &11400000
MonoBehaviour:
  m_ObjectHideFlags: 0
  m_CorrespondingSourceObject: {fileID: 0}
  m_PrefabInstance: {fileID: 0}
  m_PrefabAsset: {fileID: 0}
  m_GameObject: {fileID: 0}
  m_Enabled: 1
  m_EditorHideFlags: 0
  m_Script: {fileID: 11500000, guid: 69fc5147e0a10e8499c911bd156a9aa7, type: 3}
  m_Name: Castillo_Elevador
  m_EditorClassIdentifier: 
  dialogueName: 
  text: 
  charactersPerPage: 444
  pages:
  - text: "En este punto, Gruk nota algo inusual: una gran plataforma compuesta por
      ladrillos antiguos, emana un brillo m\xE1gico de naturaleza. Parece que los
      miembros del ''Clan Colmillo' han estado utilizando esta plataforma para alcanzar
      un lugar m\xE1s alto dentro del castillo. La magia de la naturaleza impregna
      el aire, y la plataforma se eleva, elevando a Gruk con ella."
    characterSprite: {fileID: 0}
    hasOption: 0
    options: []
    methodToExecuteOnClose: 
  - text: "Decidiendo que esta es su oportunidad para avanzar m\xE1s all\xE1 de los
      peligros que lo rodean, Gruk se acomoda en la plataforma m\xE1gica en ascenso."
    characterSprite: {fileID: 0}
    hasOption: 0
    options: []
    methodToExecuteOnClose: 
